Welcome to....

 _______ _______ _______  ___ ___ _______  _______ _______ _______ ___ ___ ___ _______ _______ _______ 
|   _   |   _   |       ||   Y   |   _   ||   _   |   _   |   _   |   Y   |   |   _   |   _   |   _   |
|.  1___|.  |___|.|   | ||.      |.  |   ||   1___|.  1___|.  l   |.  |   |.  |.  1___|.  1___|   1___|
|.  |___|.  |   `-|.  |-'|. \_/  |.  |   ||____   |.  __)_|.  _   |.  |   |.  |.  |___|.  __)_|____   |
|:  1   |:  1   | |:  |  |:  |   |:  1   ||:  1   |:  1   |:  |   |:  1   |:  |:  1   |:  1   |:  1   |
|::.. . |::.. . | |::.|  |::.|:. |::..   ||::.. . |::.. . |::.|:. |\:.. ./|::.|::.. . |::.. . |::.. . |
`-------`-------' `---'  `--- ---`----|:.|`-------`-------`--- ---' `---' `---`-------`-------`-------'
                                      `--'                                                             

:: ${project.name}:${project.version}                            ::
:: OR IT DEVELOPMENT SERVICES                                    ::
:: (c)2016 Regents of the University of California, Davis Campus ::


